…
    ## Warning: `cols` is now required.
    ## Please use `cols = c(study_data)`

``` r
study_data_tidy
```

    ## # A tibble: 160 x 4
    ##    study_arm subject_id week  observation
    ##    <chr>     <chr>      <chr>       <dbl>
    ##  1 Control   1          1            0.2 
    ##  2 Control   2          1            1.13
    ##  3 Control   3          1            1.77
    ##  4 Control   4          1            1.04
    ##  5 Control   5          1            0.47
    ##  6 Control   6          1            2.37
    ##  7 Control   7          1            0.03
    ##  8 Control   8          1           -0.08
    ##  9 Control   9          1            0.08
    ## 10 Control   10         1            2.14
    ## # … with 150 more rows
…
set.seed(10)

sim_results = rerun(10000, sim_regression(beta1 = 0)) %>%
  bind_rows()

sim_results
```

    ## # A tibble: 10,000 x 2
    ##    b1_estimate p_value
    ##          <dbl>   <dbl>
    ##  1      -2.44   0.0895
    ##  2      -0.366  0.769 
    ##  3       2.10   0.0917
    ##  4      -0.963  0.431 
    ##  5       1.61   0.192 
    ##  6       0.213  0.880 
    ##  7      -1.99   0.219 
    ##  8       2.15   0.252 
    ##  9       0.421  0.773 
    ## 10       0.685  0.532 
    ## # … with 9,990 more rows
…
